%YAML 1.1
%TAG !u! tag:unity3d.com,2011:
--- !u!1045 &1
EditorBuildSettings:
  m_ObjectHideFlags: 0
  serializedVersion: 2
  m_Scenes:
  - enabled: 1
    path: Assets/Levels/MainMenu.unity
    guid: d956f0aaf71dd2d43a0080f92aefbeed
  - enabled: 1
    path: Assets/Levels/Lobby.unity
    guid: 574ae68f20eed544d87d4d2a537e7f71
  - enabled: 1
    path: Assets/Levels/Playtest1Map.unity
    guid: 71105a0fa6b468640aa8bee4985fd472
  - enabled: 1
    path: Assets/Levels/EndScreen.unity
    guid: 8fc0447894c72cc4dbc7a684d5873a7e
